<?xml version="1.0" encoding="UTF-8" standalone="no"?>
<svg
   xmlns:dc="http://purl.org/dc/elements/1.1/"
   xmlns:cc="http://creativecommons.org/ns#"
   xmlns:rdf="http://www.w3.org/1999/02/22-rdf-syntax-ns#"
   xmlns:svg="http://www.w3.org/2000/svg"
   xmlns="http://www.w3.org/2000/svg"
   xmlns:sodipodi="http://sodipodi.sourceforge.net/DTD/sodipodi-0.dtd"
   xmlns:inkscape="http://www.inkscape.org/namespaces/inkscape"
   width="1024"
   height="1024"
   viewBox="0 0 1024 1024"
   version="1.1"
   xml:space="preserve"
   style="clip-rule:evenodd;fill-rule:evenodd;stroke-linejoin:round;stroke-miterlimit:2"
   id="svg40"
   sodipodi:docname="DtLogo.svg"
   inkscape:version="0.92.4 (5da689c313, 2019-01-14)"><metadata
   id="metadata46"><rdf:RDF><cc:Work
       rdf:about=""><dc:format>image/svg+xml</dc:format><dc:type
         rdf:resource="http://purl.org/dc/dcmitype/StillImage" /><dc:title></dc:title></cc:Work></rdf:RDF></metadata><defs
   id="defs44" /><sodipodi:namedview
   pagecolor="#ffffff"
   bordercolor="#666666"
   borderopacity="1"
   objecttolerance="10"
   gridtolerance="10"
   guidetolerance="10"
   inkscape:pageopacity="0"
   inkscape:pageshadow="2"
   inkscape:window-width="1920"
   inkscape:window-height="1017"
   id="namedview42"
   showgrid="false"
   units="px"
   inkscape:pagecheckerboard="false"
   inkscape:zoom="0.40622459"
   inkscape:cx="1164.4726"
   inkscape:cy="586.91218"
   inkscape:window-x="1680"
   inkscape:window-y="0"
   inkscape:window-maximized="1"
   inkscape:current-layer="svg40" />
    <rect
   x="0"
   y="0"
   width="1024"
   height="1024"
   style="fill:#303030;stroke-width:0.62838203"
   id="rect2"
   inkscape:export-xdpi="96"
   inkscape:export-ydpi="96" />
    <g
   transform="matrix(0.24074944,0,0,0.24074944,351.76602,-767.33908)"
   id="g6"
   inkscape:export-xdpi="96"
   inkscape:export-ydpi="96">
        <circle
   cx="1265.45"
   cy="5714.0698"
   r="343.54999"
   style="fill:#009934"
   id="circle4" />
    </g>
    <g
   transform="matrix(0.11504865,0,0,0.11504865,187.09064,-49.076163)"
   id="g10"
   inkscape:export-xdpi="96"
   inkscape:export-ydpi="96">
        <circle
   cx="1265.45"
   cy="5714.0698"
   r="343.54999"
   style="fill:#3cb933"
   id="circle8" />
    </g>
    <g
   transform="matrix(0.26299339,0,0,0.26299339,34.11285,-625.62423)"
   id="g14"
   inkscape:export-xdpi="96"
   inkscape:export-ydpi="96">
        <circle
   cx="1265.45"
   cy="5714.0698"
   r="343.54999"
   style="fill:#99e732"
   id="circle12" />
    </g>
    <g
   transform="matrix(0.18419602,0,0,0.18419602,43.476602,-112.08687)"
   id="g18"
   inkscape:export-xdpi="96"
   inkscape:export-ydpi="96">
        <circle
   cx="1265.45"
   cy="5714.0698"
   r="343.54999"
   style="fill:#00993e"
   id="circle16" />
    </g>
    <g
   transform="matrix(0.16083965,0,0,0.16083965,647.30064,-310.73208)"
   id="g22"
   inkscape:export-xdpi="96"
   inkscape:export-ydpi="96">
        <circle
   cx="1265.45"
   cy="5714.0698"
   r="343.54999"
   style="fill:#ff7f00"
   id="circle20" />
    </g>
    <g
   transform="matrix(0.16083965,0,0,0.16083965,-2.0009332,-213.03757)"
   id="g26"
   inkscape:export-xdpi="96"
   inkscape:export-ydpi="96">
        <circle
   cx="1265.45"
   cy="5714.0698"
   r="343.54999"
   style="fill:#ffdd00"
   id="circle24" />
    </g>
    <g
   transform="matrix(0.27874072,0,0,0.27874072,163.41022,-901.71428)"
   id="g30"
   inkscape:export-xdpi="96"
   inkscape:export-ydpi="96">
        <circle
   cx="1265.45"
   cy="5714.0698"
   r="343.54999"
   style="fill:#ff3f34"
   id="circle28" />
    </g>
    <g
   transform="matrix(0.33727614,0,0,0.33727614,259.99163,-1165.9493)"
   id="g34"
   inkscape:export-xdpi="96"
   inkscape:export-ydpi="96">
        <circle
   cx="1265.45"
   cy="5714.0698"
   r="343.54999"
   style="fill:#ffeb00"
   id="circle32" />
    </g>
    <g
   transform="matrix(1.8333156,0,0,1.8333156,-473.8485,-1383.3629)"
   id="g38"
   inkscape:export-xdpi="96"
   inkscape:export-ydpi="96">
        <path
   d="m 524.637,1024.7 c -0.209,0.05 -0.417,0.09 -0.626,0.13 -14.507,2.95 -28.334,4.42 -41.48,4.42 -29.24,0 -51.68,-7.47 -67.32,-22.4 -15.64,-14.934 -23.46,-35.185 -23.46,-60.752 V 841.909 l -2.38,-0.34 c -9.294,-1.367 -16.774,-4.956 -22.44,-10.768 -5.667,-5.812 -8.5,-12.591 -8.5,-20.336 0,-5.015 1.133,-9.802 3.4,-14.36 5.666,-12.077 16.66,-18.116 32.98,-18.116 h 108.8 c 34.453,0 62.503,9.35 84.15,28.05 21.646,18.7 34.623,44.937 38.93,78.71 0.68,6.574 1.02,12.694 1.02,18.36 0,30.827 -9.294,57.234 -27.88,79.22 -10.769,12.739 -23.782,22.851 -39.039,30.341 l 0.313,44.04 c 0.016,2.2 -1.369,4.16 -3.444,4.88 -2.074,0.72 -4.376,0.03 -5.722,-1.7 z M 501.911,841.569 h -41.82 v 103.02 c 0,6.347 2.21,11.107 6.63,14.28 4.42,3.174 11.843,4.76 22.27,4.76 h 5.1 c 2.72,-0.453 4.76,-0.68 6.12,-0.68 17.453,-1.586 31.62,-7.48 42.5,-17.68 10.88,-10.2 17,-23.46 18.36,-39.78 0,-19.04 -5.327,-34.453 -15.98,-46.24 -10.653,-11.786 -25.047,-17.679 -43.18,-17.68 z"
   style="fill:#ffffff;fill-rule:nonzero"
   id="path36"
   inkscape:connector-curvature="0" />
    </g>
</svg>